<svg xmlns="http://www.w3.org/2000/svg" width="21" height="18">
    <path fill="#FFF" fill-rule="evenodd" d="M19.95 17.999H9.054a.995.995 0 0 1-.99-1v-5c0-.553.444-1 .99-1s.989.447.989 1v4h8.917v-14h-8.917v4c0 .552-.443 1-.989 1a.996.996 0 0 1-.99-1v-5c0-.553.444-1 .99-1H19.95c.547 0 .99.447.99 1v16c0 .553-.443 1-.99 1zM11.225 6.378a1.008 1.008 0 0 1-.116-1.41.982.982 0 0 1 1.394-.117l3.956 3.379c.02.016.04.035.059.054l.001.001.001.001c.01.009.02.019.028.029h.001a1 1 0 0 1 .266.677v.006c0 .26-.098.497-.26.675-.015.018-.033.035-.05.052l-.045.041-3.957 3.381a.981.981 0 0 1-1.394-.118 1.007 1.007 0 0 1 .116-1.409l1.898-1.622H1.908a.994.994 0 0 1-.989-.999c0-.553.443-1 .989-1l11.215-.001-1.898-1.62z" opacity=".502"/>
</svg>
